Dragon element data analysis
…
element_networks %>%
  left_join(elements) %>%
  mutate(n_elements = as.numeric(n_elements),
         n_minerals = as.numeric(n_minerals),
         n_localities = as.numeric(n_localities)) -> element_networks_info

element_networks_info

## # A tibble: 73 x 15
##    element n_elements n_minerals n_localities element_name element_hsab
##    <chr>        <dbl>      <dbl>        <dbl> <chr>        <chr>       
##  1 Ag              28        172         3166 Silver       Soft acid   
##  2 Al              52        881        10322 Aluminum     Hard acid   
##  3 As              59        634         4664 Arsenic      Hard acid   
##  4 Au              12         31         5616 Gold         Soft acid   
##  5 B               42        232         1295 Boron        Soft acid   
##  6 Ba              40        218         2904 Barium       Hard acid   
##  7 Be              36        121         1352 Beryllium    Hard acid   
##  8 Bi              40        212         1821 Bismuth      Int. acid   
##  9 Br              15         13           88 Bromine      Soft base   
## 10 C               50        417         9650 Carbon       Soft base   
## #  with 63 more rows, and 9 more variables: atomic_mass <dbl>,
## #   number_of_protons <dbl>, element_table_period <dbl>,
## #   element_table_group <dbl>, atomic_radius <dbl>, pauling <dbl>,
## #   element_metal_type <chr>, element_density <dbl>,
## #   element_specific_heat <dbl>
…
